Info:    Loaded environment model with 626 triangles.
Info:    Robot piece with 40 triangles loaded
Debug:   RRTstar: Planner range detected to be 229.884964
Info:    RRTstar: Starting planning with 1 states already in datastructure
Info:    RRTstar: Initial k-nearest value of 3
Info:    RRTstar: Created 45903 new states. Checked 1439152 rewire options. 1 goal states in tree.
Info:    Solution found in 120.087503 seconds
-4 -40 70 0 0 0 1 
-4.8393 -68.3088 76.3482 -0.00504351 -0.897836 -0.313853 0.308806 
-25.2389 -97.6839 78.635 -0.670369 -0.12434 -0.667456 -0.29941 
-42.2609 -112.866 71.9989 0.157348 0.83691 0.493732 -0.176217 
-61.5502 -133.898 72.2232 0.0924371 0.598819 0.190316 -0.772432 
-89.9826 -128.806 79.3264 -0.350461 -0.536922 -0.70149 0.311133 
-131.133 -121.241 82.475 -0.869131 -0.0182275 -0.0749317 0.488532 
-147.501 -85.6725 92.7252 -0.127432 0.208321 -0.964359 0.101853 
-165.29 -68.381 89.3105 -0.201921 -0.105399 -0.79563 0.561331 
-178.27 -54.9317 88.178 -0.290749 -0.527247 0.613042 -0.511522 
-248.439 13.2494 94.6907 0.819255 0.046523 0.339182 -0.460014 
-269.562 38.6626 94.2622 -0.239269 -0.730442 -0.510441 -0.385558 
-265.206 52.5395 90.4052 0.412537 -0.470141 0.0391315 -0.779262 
-269.262 63.938 88.6021 -0.914993 0.156956 0.0922916 0.360047 
-270.339 86.1877 85.4173 0.922874 -0.0782344 0.345558 0.150903 
-268.365 91.4623 83.6949 0.585735 -0.30042 0.637309 -0.400625 
-263.618 110.771 87.2819 -0.51167 -0.775864 0.366245 -0.0457611 
-258.083 125.034 95.3321 0.234336 0.222627 0.771951 0.547372 
-252.734 139.073 90.5618 0.709264 0.6498 0.103829 0.252832 
-250.488 146.419 87.6674 -0.375837 -0.245532 0.0789673 0.89007 
-251.754 157.825 89.5786 0.649761 0.334449 0.305982 0.610189 
-243.948 199.535 91.4886 -0.38762 -0.261888 -0.883828 -0.0035111 
-234.834 212.72 93.163 0.516137 -0.128501 -0.122618 0.837887 
-181.745 270.826 90.4492 0.551781 -0.821661 -0.131689 -0.0553949 
-172.439 285.504 88.9893 0.698236 -0.233838 -0.245737 -0.630396 
-158.409 293.18 87.753 -0.0827865 0.533344 0.248012 0.804475 
-131.097 315.139 86.3778 0.12224 -0.583793 0.142502 -0.789896 
-117.92 325.012 91.1743 0.060717 -0.361644 0.100909 -0.924848 
-97.7656 360.128 88.9519 -0.557785 0.0634647 -0.316341 0.764707 
-75.2639 352.168 94.5062 0.463248 -0.546112 -0.558127 -0.419114 
-52.4792 353.565 99.5715 0.381924 -0.524904 0.298213 -0.699771 
-23.6472 325.237 95.1796 -0.420104 0.540311 0.582462 0.438538 
-10.5749 314.19 95.0205 0.412122 0.105226 0.430451 -0.796113 
11.0246 302.499 100.454 -0.342915 -0.706386 0.387099 0.483304 
28.9467 288.022 100.759 0.378412 0.517032 0.745837 0.182236 
50.528 264.389 98.8801 0.81555 0.0543467 -0.16582 0.55175 
54.0461 256.635 98.9425 0.67751 0.362735 0.456511 0.448331 
85.4218 242.738 93.5105 0.788193 0.320864 -0.408812 -0.329652 
107.764 251.22 91.466 -0.69152 -0.529764 -0.0867654 0.483345 
123.81 268.606 91.1386 0.390889 0.0495344 -0.90699 0.148733 
134.024 274.251 80.7148 -0.695731 -0.320219 0.163701 0.621787 
146.682 291.271 73.3104 -0.181478 0.567369 0.652684 0.468147 
153.004 299.652 66.4458 0.106246 0.413976 0.21784 0.877429 
159.403 306.049 56.7068 0.915951 0.349177 -0.123205 0.154689 
160.096 311.943 43.7295 0.942569 0.274441 -0.0299358 0.188013 
160.663 325.738 18.9606 -0.390671 0.167211 0.752807 -0.502691 
164.314 326.854 4.21365 -0.0274639 0.643565 0.260788 -0.719068 
163.52 316.064 -16.5724 -0.638261 0.482525 -0.493718 0.34064 
176.486 300.211 -31.9787 0.807518 0.208937 0.409462 -0.369596 
183.54 285.318 -40.6125 0.532911 0.543851 -0.131648 -0.634744 
193.671 260.244 -40.2065 0.691908 0.437116 0.463866 0.339148 
192.371 238.291 -44.6306 0.0313466 0.25532 0.160853 0.952867 
193.026 225.726 -44.7742 0.495575 0.710428 0.201117 0.457438 
196.971 208.197 -52.9294 -0.0189318 -0.0135645 0.171359 0.984933 
203.928 189.909 -60.3752 0.84908 0.101764 0.439912 -0.274197 
204.653 156.514 -52.1469 -0.580379 -0.0467262 -0.811457 0.0501355 
202.569 132.848 -51.2689 -0.302807 -0.190207 0.564056 -0.744292 
204.921 99.7864 -49.531 -0.107673 -0.578118 -0.724999 -0.358555 
214.577 67.1397 -46.5011 0.545321 0.523597 0.62918 0.180567 
214.678 58.5811 -46.1452 -0.436657 -0.494714 0.70041 -0.272057 
222.389 27.5463 -46.3462 -0.107241 0.488832 0.309468 0.808562 
222.526 3.9015 -45.9026 0.114355 0.44324 -0.661617 0.593906 
223.438 -8.38082 -44.3155 -0.0438926 0.26937 0.0589062 0.960231 
224.572 -17.3402 -44.7458 -0.325025 -0.497318 0.398938 0.698485 
234.233 -33.1252 -44.2372 -0.631413 0.256985 -0.402599 -0.610894 
239.851 -65.3476 -44.7579 0.579235 0.175858 -0.341372 0.719045 
241.75 -89.5727 -39.6894 0.124636 0.0761926 0.465867 -0.872713 
245.693 -103.207 -30.4669 -0.461624 -0.429258 -0.406597 0.661302 
250.922 -115.933 -1.45483 -0.618797 -0.4966 0.600016 0.102274 
234.162 -115.483 26.7743 -0.353177 -0.191522 0.829229 -0.388541 
227.404 -108.119 38.7352 0.562779 0.524269 -0.252156 0.58723 
222.198 -99.606 55.0189 -0.080539 -0.10377 0.945138 0.299098 
219.126 -79.9175 59.9066 -0.958229 -0.0633687 -0.137174 -0.242828 
216.539 -67.9394 60.7634 0.621652 0.718326 0.0949183 0.297567 
208.278 -50.1822 64.2432 0.155263 -0.896664 0.346295 0.227965 
200 -40 70 0 0 0 1 

